P1/simulation/qsim/practica1.msim.vcd
$comment
	File created using the following command:
		vcd file practica1.msim.vcd -direction
$end
$date
	Thu Feb 15 21:32:45 2024
$end
$version
	ModelSim Version 10.5b
$end
$timescale
	1ps
$end

$scope module practica1_vhd_vec_tst $end
$var wire 1 ! A $end
$var wire 1 " B $end
$var wire 1 # C $end
$var wire 1 $ CLK $end
$var wire 1 % D $end
$var wire 1 & RESET $end

$scope module i1 $end
$var wire 1 ' gnd $end
$var wire 1 ( vcc $end
$var wire 1 ) unknown $end
$var wire 1 * devoe $end
$var wire 1 + devclrn $end
$var wire 1 , devpor $end
$var wire 1 - ww_devoe $end
$var wire 1 . ww_devclrn $end
$var wire 1 / ww_devpor $end
$var wire 1 0 ww_A $end
$var wire 1 1 ww_RESET $end
$var wire 1 2 ww_CLK $end
$var wire 1 3 ww_B $end
$var wire 1 4 ww_C $end
$var wire 1 5 ww_D $end
$var wire 1 6 \CLK~inputclkctrl_INCLK_bus\ [3] $end
$var wire 1 7 \CLK~inputclkctrl_INCLK_bus\ [2] $end
$var wire 1 8 \CLK~inputclkctrl_INCLK_bus\ [1] $end
$var wire 1 9 \CLK~inputclkctrl_INCLK_bus\ [0] $end
$var wire 1 : \A~output_o\ $end
$var wire 1 ; \B~output_o\ $end
$var wire 1 < \C~output_o\ $end
$var wire 1 = \D~output_o\ $end
$var wire 1 > \CLK~input_o\ $end
$var wire 1 ? \CLK~inputclkctrl_outclk\ $end
$var wire 1 @ \inst0|Add0~1\ $end
$var wire 1 A \inst0|Add0~2_combout\ $end
$var wire 1 B \inst0|Add0~3\ $end
$var wire 1 C \inst0|Add0~4_combout\ $end
$var wire 1 D \inst0|Add0~5\ $end
$var wire 1 E \inst0|Add0~6_combout\ $end
$var wire 1 F \inst0|Add0~7\ $end
$var wire 1 G \inst0|Add0~8_combout\ $end
$var wire 1 H \inst0|Add0~9\ $end
$var wire 1 I \inst0|Add0~10_combout\ $end
$var wire 1 J \inst0|Add0~11\ $end
$var wire 1 K \inst0|Add0~12_combout\ $end
$var wire 1 L \inst0|Add0~13\ $end
$var wire 1 M \inst0|Add0~14_combout\ $end
$var wire 1 N \inst0|cuenta~1_combout\ $end
$var wire 1 O \inst0|Add0~15\ $end
$var wire 1 P \inst0|Add0~16_combout\ $end
$var wire 1 Q \inst0|Add0~17\ $end
$var wire 1 R \inst0|Add0~18_combout\ $end
$var wire 1 S \inst0|Add0~19\ $end
$var wire 1 T \inst0|Add0~20_combout\ $end
$var wire 1 U \inst0|Add0~21\ $end
$var wire 1 V \inst0|Add0~22_combout\ $end
$var wire 1 W \inst0|Add0~23\ $end
$var wire 1 X \inst0|Add0~24_combout\ $end
$var wire 1 Y \inst0|cuenta~2_combout\ $end
$var wire 1 Z \inst0|Add0~25\ $end
$var wire 1 [ \inst0|Add0~26_combout\ $end
$var wire 1 \ \inst0|cuenta~3_combout\ $end
$var wire 1 ] \inst0|Add0~27\ $end
$var wire 1 ^ \inst0|Add0~28_combout\ $end
$var wire 1 _ \inst0|cuenta~4_combout\ $end
$var wire 1 ` \inst0|Add0~29\ $end
$var wire 1 a \inst0|Add0~30_combout\ $end
$var wire 1 b \inst0|cuenta~5_combout\ $end
$var wire 1 c \inst0|Equal0~3_combout\ $end
$var wire 1 d \inst0|Equal0~1_combout\ $end
$var wire 1 e \inst0|Equal0~0_combout\ $end
$var wire 1 f \inst0|Equal0~2_combout\ $end
$var wire 1 g \inst0|Equal0~4_combout\ $end
$var wire 1 h \inst0|Add0~31\ $end
$var wire 1 i \inst0|Add0~32_combout\ $end
$var wire 1 j \inst0|Add0~33\ $end
$var wire 1 k \inst0|Add0~34_combout\ $end
$var wire 1 l \inst0|cuenta~6_combout\ $end
$var wire 1 m \inst0|Add0~35\ $end
$var wire 1 n \inst0|Add0~36_combout\ $end
$var wire 1 o \inst0|Add0~37\ $end
$var wire 1 p \inst0|Add0~38_combout\ $end
$var wire 1 q \inst0|cuenta~7_combout\ $end
$var wire 1 r \inst0|Add0~39\ $end
$var wire 1 s \inst0|Add0~40_combout\ $end
$var wire 1 t \inst0|cuenta~8_combout\ $end
$var wire 1 u \inst0|Add0~41\ $end
$var wire 1 v \inst0|Add0~42_combout\ $end
$var wire 1 w \inst0|cuenta~9_combout\ $end
$var wire 1 x \inst0|Add0~43\ $end
$var wire 1 y \inst0|Add0~44_combout\ $end
$var wire 1 z \inst0|cuenta~10_combout\ $end
$var wire 1 { \inst0|Add0~45\ $end
$var wire 1 | \inst0|Add0~46_combout\ $end
$var wire 1 } \inst0|cuenta~11_combout\ $end
$var wire 1 ~ \inst0|Equal0~6_combout\ $end
$var wire 1 !! \inst0|Add0~47\ $end
$var wire 1 "! \inst0|Add0~48_combout\ $end
$var wire 1 #! \inst0|Add0~49\ $end
$var wire 1 $! \inst0|Add0~50_combout\ $end
$var wire 1 %! \inst0|cuenta~12_combout\ $end
$var wire 1 &! \inst0|Add0~51\ $end
$var wire 1 '! \inst0|Add0~52_combout\ $end
$var wire 1 (! \inst0|Add0~53\ $end
$var wire 1 )! \inst0|Add0~54_combout\ $end
$var wire 1 *! \inst0|Equal0~7_combout\ $end
$var wire 1 +! \inst0|Equal0~5_combout\ $end
$var wire 1 ,! \inst0|Equal0~8_combout\ $end
$var wire 1 -! \inst0|Add0~0_combout\ $end
$var wire 1 .! \inst0|cuenta~0_combout\ $end
$var wire 1 /! \inst|26~0_combout\ $end
$var wire 1 0! \RESET~input_o\ $end
$var wire 1 1! \inst|26~q\ $end
$var wire 1 2! \inst|5~combout\ $end
$var wire 1 3! \inst|25~0_combout\ $end
$var wire 1 4! \inst|25~q\ $end
$var wire 1 5! \inst|51~combout\ $end
$var wire 1 6! \inst|24~0_combout\ $end
$var wire 1 7! \inst|24~q\ $end
$var wire 1 8! \inst|21~combout\ $end
$var wire 1 9! \inst|23~0_combout\ $end
$var wire 1 :! \inst|23~q\ $end
$var wire 1 ;! \inst0|cuenta\ [27] $end
$var wire 1 <! \inst0|cuenta\ [26] $end
$var wire 1 =! \inst0|cuenta\ [25] $end
$var wire 1 >! \inst0|cuenta\ [24] $end
$var wire 1 ?! \inst0|cuenta\ [23] $end
$var wire 1 @! \inst0|cuenta\ [22] $end
$var wire 1 A! \inst0|cuenta\ [21] $end
$var wire 1 B! \inst0|cuenta\ [20] $end
$var wire 1 C! \inst0|cuenta\ [19] $end
$var wire 1 D! \inst0|cuenta\ [18] $end
$var wire 1 E! \inst0|cuenta\ [17] $end
$var wire 1 F! \inst0|cuenta\ [16] $end
$var wire 1 G! \inst0|cuenta\ [15] $end
$var wire 1 H! \inst0|cuenta\ [14] $end
$var wire 1 I! \inst0|cuenta\ [13] $end
$var wire 1 J! \inst0|cuenta\ [12] $end
$var wire 1 K! \inst0|cuenta\ [11] $end
$var wire 1 L! \inst0|cuenta\ [10] $end
$var wire 1 M! \inst0|cuenta\ [9] $end
$var wire 1 N! \inst0|cuenta\ [8] $end
$var wire 1 O! \inst0|cuenta\ [7] $end
$var wire 1 P! \inst0|cuenta\ [6] $end
$var wire 1 Q! \inst0|cuenta\ [5] $end
$var wire 1 R! \inst0|cuenta\ [4] $end
$var wire 1 S! \inst0|cuenta\ [3] $end
$var wire 1 T! \inst0|cuenta\ [2] $end
$var wire 1 U! \inst0|cuenta\ [1] $end
$var wire 1 V! \inst0|cuenta\ [0] $end
$var wire 1 W! \ALT_INV_RESET~input_o\ $end
$upscope $end
$upscope $end
$enddefinitions $end
#0
$dumpvars
0!
0"
0#
0$
0%
0&
0'
1(
x)
1*
1+
1,
1-
1.
1/
00
01
02
03
04
05
0:
0;
0<
0=
0>
0?
0@
0A
1B
0C
0D
0E
1F
0G
0H
0I
1J
0K
0L
0M
0N
1O
0P
0Q
0R
1S
0T
0U
0V
1W
0X
0Y
0Z
0[
0\
1]
0^
0_
0`
0a
0b
0c
0d
1e
1f
0g
1h
0i
0j
0k
0l
1m
0n
0o
0p
0q
1r
0s
0t
0u
0v
0w
1x
0y
0z
0{
0|
0}
0~
1!!
0"!
0#!
0$!
0%!
1&!
0'!
0(!
0)!
0*!
0+!
0,!
1-!
1.!
1/!
00!
01!
12!
13!
04!
15!
16!
07!
18!
19!
0:!
1W!
0;!
0<!
0=!
0>!
0?!
0@!
0A!
0B!
0C!
0D!
0E!
0F!
0G!
0H!
0I!
0J!
0K!
0L!
0M!
0N!
0O!
0P!
0Q!
0R!
0S!
0T!
0U!
0V!
16
17
18
09
$end
#10000
1$
12
1>
19
1?
1V!
0-!
1@
0f
11!
0/!
1A
0.!
1:
10
1!
#20000
0$
02
0>
09
0?
#30000
1$
12
1>
19
1?
1U!
0V!
1-!
0@
02!
0A
0B
1C
1A
1B
1.!
0C
#40000
0$
02
0>
09
0?
#50000
1$
12
1>
19
1?
1V!
0-!
1@
01!
12!
14!
1/!
0A
0B
0.!
1C
03!
0:
00
1;
0!
13
1"
#60000
0$
02
0>
09
0?
#70000
1$
12
1>
19
1?
0U!
1T!
0V!
1-!
0@
0C
1D
1A
1B
1C
0D
1E
0A
1.!
0E
#80000
0$
02
0>
09
0?
#90000
1$
12
1>
19
1?
1V!
0-!
1@
11!
0/!
1A
0.!
1:
10
1!
#100000
0$
02
0>
09
0?
#110000
1$
12
1>
19
1?
1U!
0V!
1-!
0@
02!
05!
0A
0B
0C
1D
1A
1B
1.!
1C
0D
1E
0E
#120000
0$
02
0>
09
0?
#130000
1$
12
1>
19
1?
1V!
0-!
1@
01!
12!
15!
17!
04!
1/!
0A
0B
0.!
0C
1D
13!
06!
0:
1E
00
0;
1<
0!
03
14
0"
1#
#140000
0$
02
0>
09
0?
#150000
1$
12
1>
19
1?
0U!
0T!
1S!
0V!
1-!
0@
0E
0F
1C
0D
1A
1B
0C
1E
1F
1G
0A
1.!
0G
#160000
0$
02
0>
09
0?
#170000
1$
12
1>
19
1?
1V!
0-!
1@
11!
0/!
1A
0.!
1:
10
1!
#180000
0$
02
0>
09
0?
#190000
1$
12
1>
19
1?
1U!
0V!
1-!
0@
02!
0A
0B
1C
1A
1B
1.!
0C
#200000
0$
02
0>
09
0?
#210000
1$
12
1>
19
1?
1V!
0-!
1@
01!
12!
14!
1/!
0A
0B
0.!
1C
03!
0:
00
1;
0!
13
1"
#220000
0$
02
0>
09
0?
#230000
1$
12
1>
19
1?
0U!
1T!
0V!
1-!
0@
0C
1D
1A
1B
1C
0D
0E
0F
0A
1.!
1G
1E
1F
0G
#240000
0$
02
0>
09
0?
#250000
1$
12
1>
19
1?
1V!
0-!
1@
11!
0/!
1A
0.!
1:
10
1!
#260000
0$
02
0>
09
0?
#270000
1$
12
1>
19
1?
1U!
0V!
1-!
0@
02!
05!
08!
0A
0B
0C
1D
1A
1B
1.!
1C
0D
0E
0F
1G
1E
1F
0G
#280000
0$
02
0>
09
0?
#290000
1$
12
1>
19
1?
1V!
0-!
1@
01!
12!
15!
18!
1:!
07!
04!
1/!
0A
0B
0.!
0C
1D
13!
16!
09!
0:
0E
0F
00
0;
0<
1=
0!
1G
03
04
15
0"
0#
1%
#300000
0$
02
0>
09
0?
#310000
1$
12
1>
19
1?
0U!
0T!
0S!
1R!
0V!
1-!
0@
0G
1H
1E
1F
1C
0D
1A
1B
1f
0C
0E
1G
0H
1I
0A
1.!
0I
#320000
0$
02
0>
09
0?
#330000
1$
12
1>
19
1?
1V!
0-!
1@
0f
11!
0/!
1A
0.!
1:
10
1!
#340000
0$
1&
02
11
10!
0>
0W!
09
01!
0:!
0?
19!
1/!
0=
0:
05
00
0%
0!
#350000
1$
0&
12
01
00!
1>
1W!
19
1?
1U!
0V!
1-!
0@
0A
0B
1C
1A
1B
1.!
0C
#360000
0$
02
0>
09
0?
#370000
1$
12
1>
19
1?
1V!
0-!
1@
11!
0/!
0A
0B
0.!
1C
1:
10
1!
#380000
0$
02
0>
09
0?
#390000
1$
12
1>
19
1?
0U!
1T!
0V!
1-!
0@
02!
0C
1D
1A
1B
1C
0D
1E
0A
1.!
0E
#400000
0$
02
0>
09
0?
#410000
1$
12
1>
19
1?
1V!
0-!
1@
01!
12!
14!
1/!
1A
0.!
03!
0:
00
1;
0!
13
1"
#420000
0$
02
0>
09
0?
#430000
1$
12
1>
19
1?
1U!
0V!
1-!
0@
0A
0B
0C
1D
1A
1B
1.!
1C
0D
1E
0E
#440000
0$
02
0>
09
0?
#450000
1$
12
1>
19
1?
1V!
0-!
1@
11!
0/!
0A
0B
0.!
0C
1D
1:
1E
10
1!
#460000
0$
02
0>
09
0?
#470000
1$
12
1>
19
1?
0U!
0T!
1S!
0V!
1-!
0@
02!
05!
0E
0F
1C
0D
1A
1B
0C
1E
1F
0G
1H
0A
1.!
1I
1G
0H
0I
#480000
0$
02
0>
09
0?
#490000
1$
12
1>
19
1?
1V!
0-!
1@
01!
12!
15!
17!
04!
1/!
1A
0.!
13!
06!
0:
00
0;
1<
0!
03
14
0"
1#
#500000
0$
02
0>
09
0?
#510000
1$
12
1>
19
1?
1U!
0V!
1-!
0@
0A
0B
1C
1A
1B
1.!
0C
#520000
0$
02
0>
09
0?
#530000
1$
12
1>
19
1?
1V!
0-!
1@
11!
0/!
0A
0B
0.!
1C
1:
10
1!
#540000
0$
02
0>
09
0?
#550000
1$
12
1>
19
1?
0U!
1T!
0V!
1-!
0@
02!
0C
1D
1A
1B
1C
0D
0E
0F
0A
1.!
0G
1H
1E
1F
1G
0H
1I
0I
#560000
0$
02
0>
09
0?
#570000
1$
12
1>
19
1?
1V!
0-!
1@
01!
12!
14!
1/!
1A
0.!
03!
0:
00
1;
0!
13
1"
#580000
0$
02
0>
09
0?
#590000
1$
12
1>
19
1?
1U!
0V!
1-!
0@
0A
0B
0C
1D
1A
1B
1.!
1C
0D
0E
0F
0G
1H
1E
1F
1G
0H
1I
0I
#600000
0$
02
0>
09
0?
#610000
1$
12
1>
19
1?
1V!
0-!
1@
11!
0/!
0A
0B
0.!
0C
1D
1:
0E
0F
10
1!
0G
1H
1I
#620000
0$
02
0>
09
0?
#630000
1$
12
1>
19
1?
0U!
0T!
0S!
0R!
1Q!
0V!
1-!
0@
02!
05!
08!
0I
0J
1G
0H
1E
1F
1C
0D
1A
1B
1f
0C
0E
0G
1I
1J
1K
0A
1.!
0K
#640000
0$
02
0>
09
0?
#650000
1$
12
1>
19
1?
1V!
0-!
1@
0f
01!
12!
15!
18!
1:!
07!
04!
1/!
1A
0.!
13!
16!
09!
0:
00
0;
0<
1=
0!
03
04
15
0"
0#
1%
#660000
0$
02
0>
09
0?
#670000
1$
12
1>
19
1?
1U!
0V!
1-!
0@
0A
0B
1C
1A
1B
1.!
0C
#680000
0$
02
0>
09
0?
#690000
1$
12
1>
19
1?
1V!
0-!
1@
11!
0/!
0A
0B
0.!
1C
1:
10
1!
#700000
0$
02
0>
09
0?
#710000
1$
12
1>
19
1?
0U!
1T!
0V!
1-!
0@
02!
0C
1D
1A
1B
1C
0D
1E
0A
1.!
0E
#720000
0$
02
0>
09
0?
#730000
1$
12
1>
19
1?
1V!
0-!
1@
01!
12!
14!
1/!
1A
0.!
03!
0:
00
1;
0!
13
1"
#740000
0$
02
0>
09
0?
#750000
1$
12
1>
19
1?
1U!
0V!
1-!
0@
0A
0B
0C
1D
1A
1B
1.!
1C
0D
1E
0E
#760000
0$
02
0>
09
0?
#770000
1$
12
1>
19
1?
1V!
0-!
1@
11!
0/!
0A
0B
0.!
0C
1D
1:
1E
10
1!
#780000
0$
02
0>
09
0?
#790000
1$
12
1>
19
1?
0U!
0T!
1S!
0V!
1-!
0@
02!
05!
0E
0F
1C
0D
1A
1B
0C
1E
1F
1G
0A
1.!
0G
#800000
0$
02
0>
09
0?
#810000
1$
12
1>
19
1?
1V!
0-!
1@
01!
12!
15!
17!
04!
1/!
1A
0.!
13!
06!
0:
00
0;
1<
0!
03
14
0"
1#
#820000
0$
02
0>
09
0?
#830000
1$
12
1>
19
1?
1U!
0V!
1-!
0@
0A
0B
1C
1A
1B
1.!
0C
#840000
0$
02
0>
09
0?
#850000
1$
12
1>
19
1?
1V!
0-!
1@
11!
0/!
0A
0B
0.!
1C
1:
10
1!
#860000
0$
02
0>
09
0?
#870000
1$
12
1>
19
1?
0U!
1T!
0V!
1-!
0@
02!
0C
1D
1A
1B
1C
0D
0E
0F
0A
1.!
1G
1E
1F
0G
#880000
0$
02
0>
09
0?
#890000
1$
12
1>
19
1?
1V!
0-!
1@
01!
12!
14!
1/!
1A
0.!
03!
0:
00
1;
0!
13
1"
#900000
0$
02
0>
09
0?
#910000
1$
12
1>
19
1?
1U!
0V!
1-!
0@
0A
0B
0C
1D
1A
1B
1.!
1C
0D
0E
0F
1G
1E
1F
0G
#920000
0$
02
0>
09
0?
#930000
1$
12
1>
19
1?
1V!
0-!
1@
11!
0/!
0A
0B
0.!
0C
1D
1:
0E
0F
10
1!
1G
#940000
0$
02
0>
09
0?
#950000
1$
12
1>
19
1?
0U!
0T!
0S!
1R!
0V!
1-!
0@
02!
05!
08!
0G
1H
1E
1F
1C
0D
1A
1B
1f
0C
0E
1G
0H
0I
0J
0A
1.!
1K
1I
1J
0K
#960000
0$
02
0>
09
0?
#970000
1$
12
1>
19
1?
1V!
0-!
1@
0f
01!
12!
15!
18!
0:!
07!
04!
1/!
1A
0.!
13!
16!
19!
0:
00
0;
0<
0=
0!
03
04
05
0"
0#
0%
#980000
0$
02
0>
09
0?
#990000
1$
12
1>
19
1?
1U!
0V!
1-!
0@
0A
0B
1C
1A
1B
1.!
0C
